module gitlab.com/NikitarRudakov/cryptocurrency_converter

go 1.21.0

require (
	github.com/gin-gonic/gin v1.9.1
	github.com/golang/mock v1.6.0
	github.com/jackc/pgx/v4 v4.18.1
	github.com/pkg/errors v0.9.1
	github.com/sirupsen/logrus v1.9.3
	github.com/stretchr/testify v1.8.4
	github.com/subosito/gotenv v1.6.0
	github.com/swaggo/files v1.0.1
	github.com/swaggo/gin-swagger v1.6.0
	github.com/swaggo/swag v1.16.3
)

require (
	github.com/KyleBanks/depth v1.2.1 // indirect
	github.com/bytedance/sonic v1.9.1 // indirect
	github.com/chenzhuoyu/base64x v0.0.0-20221115062448-fe3a3abad311 // indirect
	github.com/davecgh/go-spew v1.1.2-0.20180830191138-d8f796af33cc // indirect
	github.com/gabriel-vasile/mimetype v1.4.2 // indirect
	github.com/gin-contrib/sse v0.1.0 // indirect
	github.com/go-openapi/jsonpointer v0.20.2 // indirect
	github.com/go-openapi/jsonreference v0.20.4 // indirect
	github.com/go-openapi/spec v0.20.14 // indirect
	github.com/go-openapi/swag v0.22.9 // indirect
	github.com/go-playground/locales v0.14.1 // indirect
	github.com/go-playground/universal-translator v0.18.1 // indirect
	github.com/go-playground/validator/v10 v10.14.0 // indirect
	github.com/goccy/go-json v0.10.2 // indirect
	github.com/google/go-cmp v0.5.9 // indirect
	github.com/jackc/chunkreader/v2 v2.0.1 // indirect
	github.com/jackc/pgconn v1.14.1 // indirect
	github.com/jackc/pgio v1.0.0 // indirect
	github.com/jackc/pgpassfile v1.0.0 // indirect
	github.com/jackc/pgproto3/v2 v2.3.2 // indirect
	github.com/jackc/pgservicefile v0.0.0-20231201235250-de7065d80cb9 // indirect
	github.com/jackc/pgtype v1.14.1 // indirect
	github.com/jackc/puddle v1.3.0 // indirect
	github.com/josharian/intern v1.0.0 // indirect
	github.com/json-iterator/go v1.1.12 // indirect
	github.com/klauspost/cpuid/v2 v2.2.4 // indirect
	github.com/leodido/go-urn v1.2.4 // indirect
	github.com/mailru/easyjson v0.7.7 // indirect
	github.com/mattn/go-isatty v0.0.19 // indirect
	github.com/modern-go/concurrent v0.0.0-20180306012644-bacd9c7ef1dd // indirect
	github.com/modern-go/reflect2 v1.0.2 // indirect
	github.com/pelletier/go-toml/v2 v2.1.0 // indirect
	github.com/pmezard/go-difflib v1.0.1-0.20181226105442-5d4384ee4fb2 // indirect
	github.com/twitchyliquid64/golang-asm v0.15.1 // indirect
	github.com/ugorji/go/codec v1.2.11 // indirect
	golang.org/x/arch v0.3.0 // indirect
	golang.org/x/crypto v0.19.0 // indirect
	golang.org/x/net v0.21.0 // indirect
	golang.org/x/sys v0.17.0 // indirect
	golang.org/x/text v0.14.0 // indirect
	golang.org/x/tools v0.18.0 // indirect
	google.golang.org/protobuf v1.31.0 // indirect
	gopkg.in/yaml.v3 v3.0.1 // indirect
)
